  3720
  2569
  7826
  3410
  9519
  4903
   345
  9337
  5538
  8080
  3021
  5501
  8999
  9456
  6757
  3651
  1948
  7916
  7962
  9081
  7871
  1597
  7661
  1327
  5960
  9386
    10
  7046
  5583
  4401
    35
  6309
  4106
  7073
  6773
   707
  3782
  9729
  2347
  8564
  9401
  6961
  3776
  1301
  6643
  8127
  4408
  7159
   496
  5518
  4848
  3182
  1505
  7795
  3141
  1360
  4244
  8635
  9889
  3427
  9140
  7663
  6134
  5870
  8516
  4983
  4926
  7412
  6761
  8727
  7198
  8206
  5454
  6344
  7877
  2830
  4287
  3613
  9171
  1548
  5719
  5814
  1346
   909
  7494
  9841
  3091
  2048
  6427
  8770
  3236
  5411
  7172
  6219
  4534
  9249
  2986
  6399
  3199
   344
  3748
  2106
  3566
  4337
   275
  9780
  4947
  6782
  3551
  7306
  9185
  5725
  3556
   636
  1407
  3019
  4912
  2868
  2170
  3223
  6509
  1039
  6129
   958
  4260
   512
  8986
  5571
  7458
   229
  3830
  4856
  2938
  9559
  5005
  8614
  8610
  4320
  3177
   554
  3600
  9011
  2663
  6639
  5438
  1548
  2599
  2219
  4810
  7792
  8862
  6579
  8952
  7686
  9494
  9191
  2017
  2113
  5541
  7812
  8104
  1765
  6114
  2595
  6661
  2371
  9917
  7263
  5358
  8615
   547
  7747
  2274
  9901
  2281
  9804
  4918
  3824
  1064
  7019
  9851
  1977
  6691
   638
  3928
  8610
  6501
  5806
  4462
  6534
  5057
   998
  5470
  2402
  8923
   378
   209
  3914
  7468
   585
  2249
  7415
   896
  4997
  9162
  6046
  9560
  7711
  7118
  3868
  1756
  3842
  1159
  6053
  9461
  8805
  1115
  8380
  6275
  4572
  7049
  1864
   411
  4282
   913
  6120
  3825
  3930
  9735
  8595
  1524
  3705
  4984
  5539
  4335
  3708
  3613
  2043
  6985
  3448
   533
  9723
  2491
  6620
  4413
  4157
  4838
  7670
  8389
  9548
  8006
  8129
   348
  6097
  8555
  1208
  3051
  2162
  2983
  9190
  4470
  5321
  2557
  9806
  8193
  9074
  7141
  7018
  4701
  2127
  9799
  3704
  3694
  9067
  8162
  3813
  1697
  7355
  4708
  4630
  6099
  4957
  6033
  7139
  6032
  2708
  6267
   289
  6222
  8082
  7372
  2251
  2086
  2666
   171
  1594
   864
  5949
  4060
  4617
  5317
  8133
  6295
  4892
  2126
  8164
  9001
  9900
  4805
  3401
  4091
  4443
  1898
  3920
  8322
  7165
  2157
  7921
  3846
  8302
  2703
  9881
  3036
  8595
  6561
  5759
  2315
  8845
  4858
  7442
  6665
  7789
  4974
  5779
  6625
   866
  9993
    10
  7755
  8334
  2300
  5957
  2477
  1081
  9800
  5766
  1264
  6824
  3318
  9454
  8870
  9505
  2589
  1070
  8631
   204
  6628
  9603
  9579
  4685
  4861
  4071
  7697
  5951
  9283
  2193
  8480
  4112
    45
  2941
  4865
  6780
  5081
  8414
  3686
  6395
   517
  7422
  1164
  7222
  9294
  3551
  5450
   648
  7441
  1593
  8848
  4529
  9070
  7217
  6546
  6759
  7678
  5680
  5894
  8033
  6361
  2643
  9002
  2816
  7019
  3955
  5041
  1685
  7391
  6407
  9796
  6501
  5932
  5302
  2962
  9980
  3415
  9836
  7241
  8634
  3193
  8459
  9282
   762
     0
    41
  3769
  2674
    84
  1465
  5542
  4998
  9718
  7876
  5481
  9523
  7693
  2886
  9197
  4926
  4893
  4722
  2043
  2211
  1983
  4330
  7291
  2988
   230
  9450
  9684
   738
  9328
  8696
  7992
  8700
  7658
  7822
  2324
  1742
  8246
  9016
  9971
  9691
  6359
  8012
  4852
  2169
  6768
  7576
  5631
  4006
  7465
  6762
  5555
  2659
  1270
  4007
  4503
   475
  3443
  4262
  6038
  8486
  7069
   484
  8572
  1490
  2513
  6511
  6975
  5495
   996
  1435
  5314
  7993
  4465
  3588
  3078
  8460
  3376
  8582
   748
  4829
  3878
   660
  2509
  2270
  3044
  2354
  8398
  2792
  1424
  4937
  3606
  4470
  2707
  1622
  3248
  7873
  1330
  7586
   970
   334
  9892
  5331
  3926
  2800
  8984
  1229
  2555
  2930
  9351
  5102
  5162
  5305
  1100
  8423
  5385
  3734
  7757
  4813
   387
  5908
  5916
  2376
  9298
  3710
  5170
  3533
  3918
  7462
  3888
  5039
  1541
  5132
    64
  4013
  7724
  6992
   407
   922
  7184
  2191
  2609
   739
  5203
  8887
  3632
  8822
  5372
   413
  5284
  4839
  9236
  5970
  7824
  2723
  2002
  3396
  4807
   343
   203
  6906
    53
  4703
    20
  9803
   349
  9464
  1690
  8503
  4881
  1019
  7133
  9070
  1206
  6738
  7244
  4183
  5575
   385
  4311
  1333
  1633
  8316
  4387
  9141
  1919
  5776
  3150
  2570
    45
   874
  1360
  1081
  1928
  8201
  4083
  9106
  8608
  3117
  9842
  3646
   130
  9695
  7409
   707
  6466
  2433
  9910
  9488
   908
  6630
  3097
  9838
  8578
  2247
   374
  3479
  4198
  9690
  1484
  9056
  6964
  2428
  9344
   135
  9893
  4136
  4348
  9719
  3019
  5873
  2321
  5747
  6687
  3899
  5168
  2792
  6436
  3890
  5249
  6031
  8093
  4932
   719
  9449
  1185
  1231
  8230
  2537
  4588
  2773
  8765
  5262
  4277
  5805
  5263
  8727
  6475
  3954
  9563
  1735
  5197
  3316
  1283
  7587
  5078
  5722
  5302
  7974
  6828
  5842
  4983
  2631
  6869
  1626
  5596
  1636
  9221
  8553
  9754
  9070
  1519
  4075
  5482
  2921
  9402
   896
  6260
  3658
  8586
  1113
  7807
  3321
  6923
  2730
  8665
  7604
  2641
  1531
  5604
  6821
  9766
  1778
  6407
   682
  3374
   481
  7350
  8640
  5396
    64
  7854
  3533
   938
  4016
  2347
  7041
  9408
  6495
  1048
   680
  3426
  8836
  2717
  1723
  5460
  6693
  6702
  7585
  3319
  7523
  6606
   304
  6396
  5734
    84
  1562
  4574
  4211
  7977
  6665
  9577
   137
  2139
  9510
  4870
  8160
  3948
  5527
  8937
  5915
  5750
  8934
  3173
   358
  3825
  3578
  7100
   270
  3338
  9482
  7501
  1561
  9663
  7025
   457
  5751
  9585
  8460
   504
  3179
  5712
  3459
  6715
  8075
  5639
  3930
  5270
  7019
  9577
  6936
  9556
  6679
   571
  9546
  8765
  8221
  2036
  2947
  1242
  4261
  8672
  5883
   861
  9602
  5489
  2075
  7257
  7050
  2236
  4718
   475
  6697
   826
  1330
  1536
    93
   340
  8803
  4828
  7159
  1568
  5652
  2416
   456
   512
  9498
   956
  5297
  9812
  5580
   453
  4508
  1167
  7683
  5481
  4155
  8473
  7332
  6531
  8194
  2509
  2588
  3335
  3830
  5120
  1870
   384
  5551
  7637
  9118
  5207
  2250
  5656
  7477
  2048
  7857
    35
  7382
  9450
  4913
  7934
  5287
  9075
  7643
  2016
  5276
  2976
  5496
   536
  4808
  3136
  5493
   886
  3191
  4920
  8745
   794
  9824
  9974
  4437
  4908
  4358
  5172
  4276
  9594
  9460
  7520
  8843
   892
  3281
  7985
   210
  4104
  4900
  3898
  6809
  8543
  4305
  2623
   813
   356
  2242
  5387
  7671
  4555
  8058
  6718
  8245
  2113
   170
  5224
  9611
  3199
    68
  2036
  9800
  2821
  9829
  8316
  2261
  9182
  4650
  9069
   227
  2379
  2946
  8043
  7596
  5507
  2659
  3932
  6796
  7132
  4400
  1597
  8099
  4694
   483
  7154
  9502
   464
  7921
  1536
  5163
  4819
  8868
  6638
  7253
  9445
  9699
  8269
  4417
  7695
  8195
  7505
   640
  4101
    94
  6027
  3310
  3062
  8855
  1159
   339
  5389
  5015
  1372
  9377
  4391
  8577
  2164
  1999
  8083
  4541
  8002
  2456
  8718
  6406
  3704
  4970
  8663
  7204
  5961
  6421
  9989
   912
  3935
  4954
   499
  1696
  5968
  7283
  1632
  1375
  7980
  8078
  5145
  2422
  8291
  6074
  4828
  9375
  9559
  3609
  4916
  2084
  5033
  1799
  4931
  5782
  5266
  5832
  7594
    34
  8828
  4931
  5193
  3268
  3820
  5817
  2993
  2688
  9052
  8187
  8256
  2362
  3236
  2611
   302
  9916
  6353
  9549
  7467
  4023
  5558
  7053
  2456
  7009
  2185
  4705
  2432
  9808
  9641
  4796
  2298
  9566
  6136
  5259
  8098
  9638
  8252
  3194
  4846
  6250
  9761
  6796
  3352
  3622
  6840
  9783
  5841
  9847
  9173
  7644
  6312
  9405
  5358
  3240
  5254
  1808
  9408
  1671
  2175
   366
  8035
  1540
  3175
  9109
  8610
  5245
  5991
  6787
  4443
  2612
   852
    83
  8256
  3648
  7181
  8294
  5437
  7679
  4070
  9449
  9398
  7563
  6756
  3194
  7376
  2908
  6767
  3464
  1881
  3910
  5891
   423
  6975
  3901
  6385
  9204
  5754
  6629
  2295
  5040
   226
    24
  8220
   838
  4459
  3492
  5947
  5358
  8933
   176
  2803
   623
  1446
  9876
  2856
  1331
  9116
  5777
  9210
  8828
  3059
  5935
  6835
  8437
   128
  5495
  4270
   765
  5553
  2727
  8588
   920
  6564
  5692
  5893
  1844
  8383
  5965
  9925
  7025
  8574
  3998
  6869
  3189
  2511
  8097
  6424
  2672
  3620
   736
  6052
   889
   480
  6086
  2368
  8580
  7712
  1547
  8060
  1312
  9154
  5977
   469
  1100
   532
  7924
  2961
  5946
  5831
  3298
  9823
  5553
  6402
  6633
  6671
  4791
  5008
  4767
  8076
  8835
  3362
  3905
  7503
  8607
  6666
   995
  3187
  4384
  7173
   310
  5635
  6042
  2896
  9826
  2182
  9505
  7671
  4045
  9987
  5647
  8442
  2688
  6916
  4556
  2283
  9011
  6015
  2135
  9235
  6791
  6333
  7693
  5228
  7298
  6564
  3598
  8806
  4277
   924
  8293
  8984
  4651
  6268
  6061
  6981
  7695
  3481
  7852
  9418
  5974
  8837
  8401
  2164
  8576
  1136
  8391
  1414
  4329
  6509
  5333
  2278
  7629
  8590
  8579
  1271
  7415
  5325
  9551
   925
  3448
  2486
  6960
  2539
  6487
  1303
  8288
  1911
  8738
  4121
  5096
  7684
  4122
  3998
  2943
   633
  1434
  3945
  7778
  2602
  5210
  3623
  6790
  5823
   532
  9632
   796
  7678
  1894
  4183
  4711
  9050
  2890
  3919
  9347
  2079
  2682
   287
  6125
  8583
  4061
  7614
  3202
  6659
  6445
  5962
  7709
  3890
  3206
  3766
  5760
  6278
  7597
  5187
  7791
  6566
  3346
  8837
  5194
  4036
  8379
  2889
   166
  6046
  8245
  7247
  4605
  3365
  7817
  6391
    52
   468
  8798
  6218
  9752
  7316
  9625
  5986
  4774
  1461
  2218
  3199
  2937
  6561
  3372
  3788
  5287
  6499
  9631
  6295
  5649
  2718
  4698
  4824
  5224
  2928
  2637
  3409
  9638
  2852
  8100
  6959
  9667
  5146
  9637
  5030
  4076
  6488
  2438
  6339
  8277
  2916
  7443
  8541
  7998
  1126
  2634
  8896
  7766
  3923
  9744
  9139
  1515
  9029
  7914
  5957
  3171
   208
  7447
  8082
  7809
  6943
  8522
  4054
  1620
  5005
  9267
  4211
   761
  7703
  4340
  5494
  9275
  2814
  4734
  9636
  4432
  3796
  6066
  6134
  1151
  3986
  7139
  9908
  8438
  9194
  6042
  7073
  8008
  6297
  7383
  3221
   662
  1544
  5620
  1058
  7690
  2607
  8660
  2350
  5540
  4091
  5534
  6305
  4180
  8407
   405
  1265
  4867
  3310
  2384
  3635
  2249
  2309
  2748
  9651
  8388
  3422
  7298
  9776
  9920
   301
  5044
  9373
  9080
  6535
  5713
   980
  2759
  4787
  7597
  3095
  2029
  1078
  7034
  8550
  3762
  8539
  6777
  2523
  2798
  7013
  9753
  9440
  5041
  7352
  8102
  2734
  4807
  5607
  3605
  9166
  2231
  4999
  4470
  4617
   638
  4172
  4446
   702
  6650
  1246
  5044
  6264
  2338
   559
  9470
   960
  1817
  4443
  7946
  1991
  1089
  8308
  2800
  6694
  3839
  3779
  5597
   325
  3903
  2674
  1934
   497
  6540
  8037
  1861
  6937
  5958
  6243
  2319
  7871
  2912
   431
    64
  2116
  4504
  5330
  9798
  7631
  2207
  4882
  7374
  7400
  2535
  4894
  7268
   617
  7460
  7890
  6217
  4430
  9501
   845
  9377
   392
  9109
  3251
  2947
  3857
  9276
  2626
  3378
  5396
   316
  7560
  7614
  5486
  7711
  3700
  6211
  7087
  5843
   824
  5403
  8028
  3860
  3263
  9074
  6801
  8902
  5990
  6850
  9803
  3260
  9287
  8221
  2798
  6163
  5690
    50
  1754
  7933
  8690
  6787
  6237
  4128
  2956
  4375
  3116
  8141
  5449
  2514
   742
  3535
  1910
  5037
  1366
  3696
  9156
  3427
  5580
  1263
  4268
  7059
  4418
  5321
  2066
  5678
  8137
  4064
   809
  3000
  3092
  2840
  5630
  5034
  9908
  7154
  1683
  2763
  6505
    99
  7363
  8632
  7627
  9763
  2486
  1326
  2000
  4186
  4224
  2441
  2367
  9276
   834
  5476
  2544
  7076
  3805
  3609
  6715
  2727
  7609
  6199
    59
  3815
  9806
  8486
  2949
  4025
  2350
  2329
  1153
  8675
   991
  3775
  8417
  9059
   231
   795
  3916
  2699
  7138
  9845
   887
  4185
   136
  7659
  5753
  3544
  1621
  7012
  8292
   145
  8219
  4030
  2477
  3539
  3842
   857
  4710
  1661
  9444
  9629
  8161
  4935
  7767
  1132
  7126
  5700
  1115
  8763
  7816
  4708
  7176
  3296
  4280
  8614
  2039
  9710
  6417
   640
  5018
  9188
  1291
   591
  2262
   167
  4319
  7385
  7727
  1219
  2571
  7257
  1808
  6111
    72
  1994
  8535
  1143
  4399
  7545
   172
  7596
  4581
   474
  6852
  7851
  6741
  2195
  1694
  8911
  8813
  5235
  4481
  9477
   111
  2439
  9714
  7535
  5152
  9902
  6974
  4652
  9209
  3481
  8792
   451
  5856
  8844
  2877
  2410
  3808
  6048
   731
  2769
  1368
  3648
   720
  8694
  2984
  2201
  7888
  7745
  4124
  2295
  5013
   325
  4496
   910
  4593
  5765
  7016
  1782
  5018
  7822
  7033
  6700
  8678
   465
  4688
  4606
  2130
    71
  1868
  3401
  7889
  4868
  4455
  5351
  8380
  6004
  7460
  7204
  2367
  3700
  5950
  6266
   846
  2247
   556
  5482
  5873
  9713
  7537
  7990
  4012
  8286
  5127
  3867
  1136
   994
  3319
  8772
  5787
  6890
  3372
  2996
  3598
  7636
  9076
  6442
  2019
   558
  2231
  6810
  6281
  2144
  1675
  3453
  8690
  6276
  7090
  4064
  9337
  6985
  5608
  6684
   849
  9901
  2224
  5921
  7227
  3981
  9464
  8987
  2770
   654
  7511
  2571
  2722
  2129
  4335
  8078
  6456
  8772
  6902
  4879
  8981
  6213
  8869
  4919
  7589
  3079
  3735
  5759
   670
  3207
  6885
  5941
  7067
  9879
  7707
  2266
  8208
   567
  9606
  9493
  6095
  7090
  1199
  5630
  6881
  2073
  4705
  9333
  4614
  1977
  9757
  6574
  4623
   632
  2651
  5177
  3926
  4629
  9014
  8924
  3930
  8514
  5168
  5982
   920
   714
   110
  5955
  7909
  8944
  1308
  6586
  9742
  2135
  5581
  2057
  3952
  9503
  6357
  3033
  7491
  5373
  6335
   412
  1419
  4672
  1152
  5842
  7385
  2508
  1376
  1656
  6871
  7669
  5724
  5031
  3366
  3970
  2439
  9582
  9644
  7154
  2219
  2407
  7630
  6451
  6238
  7202
  7786
   876
  2168
  8189
  8418
  6392
  7771
  3302
   286
  1345
  1345
  4971
  6352
  5889
   971
  3125
  6258
  1785
  9706
  8260
  5153
  5844
  6078
  9514
  5913
  3373
  2368
  8193
  5685
  2686
  7209
  6441
  9108
  9758
  9903
  9889
   480
  2496
  7956
  1711
  3269
  7028
  9036
  2723
  7732
  3448
  5982
  7068
  1733
  8297
  2468
  9086
  9411
  2552
  7868
  3249
  1827
  7721
  5199
  8373
  2652
  1209
   878
  4928
  8020
   150
  2285
  1523
  2048
  8756
  9700
  2790
   456
  7846
  9591
  9669
  2668
  5752
   578
  1119
  4336
  5523
  2639
  9661
  7786
   683
  7359
  3377
  2221
   548
  5001
   814
  6901
  6237
  9420
  1930
  1847
  1978
   252
  4401
  8858
  2875
  9441
  9473
  5792
  4961
  9159
  5057
  8111
  9724
  3325
  6596
  8691
  4928
  9775
  7430
  8145
  9087
  6513
  3420
  5503
  9465
  4597
  8870
  3294
  9591
   715
   749
  5384
  4084
   673
  9294
  6096
  8385
  3096
  5340
  2172
   490
  6051
  9059
  3235
  4819
  2403
  6823
  8829
  6105
  6236
  7144
  8146
  8356
  5541
  3386
  1940
  3057
  2308
  6312
  6715
  2288
  1556
  5572
  8191
  7573
  5568
  3532
  6870
  8683
  2357
  7364
  2434
    29
   123
  1482
  4206
  2419
  5832
  6290
   855
  2910
  4732
  3594
  8966
  7405
   950
  7506
  8986
  7663
   582
  8397
   487
  3924
  9658
  9568
  2718
  1917
  4535
  7256
  9195
  7249
  5485
  8162
   788
  8244
  2493
  3135
  1244
   668
  7312
  2750
  2549
  3396
  5364
  3516
  2642
   135
  4311
    77
  9529
  9821
  2391
  9329
   794
  7769
  7766
  8358
  7171
  4608
  9861
  9133
  3639
  8765
  4383
  3513
  1047
  2748
  1955
  3746
   636
  3186
  4063
  8306
  4718
  6196
  9645
  2749
  1746
   621
  1104
  6266
  7386
   170
  4226
  9737
  5991
   167
  2892
  9124
  8503
  8066
  2731
  2904
  9807
  3409
  1688
  2402
  9925
  7734
   445
   239
  3931
  6886
  5926
  1071
  3827
  3733
  9635
  4175
  9080
  1818
  7949
   283
  6310
  9354
  5656
  9049
  2020
  3441
  5553
  1478
  5212
  1066
  4730
  9646
  5662
  9860
  9717
  7805
  4392
  9377
  2085
   248
   942
  8053
  3865
  7821
  2501
  8168
  1663
  8812
  6414
  3668
  9733
   674
  1387
  1144
   321
  7416
  6935
  9101
  4625
  8279
  3334
  3038
  6579
  2026
  5732
  7694
  4491
   136
  4501
  7109
  9066
  3681
  1051
  6960
  6418
  2236
  5572
  6947
  4549
  7391
  3007
  8617
   801
  5930
  3628
  5976
  7143
  6714
  1567
   819
  8081
  1237
  4109
  2804
  5205
  8084
  3181
  8821
  8692
  5889
  9414
  2068
  7083
   800
  8879
  2211
   606
  2286
  7313
  8589
  8225
  2084
  4658
  7443
  9932
  1710
   705
  1610
  3735
  7821
  5930
  5864
  1127
  4551
  5364
  8067
  6359
  1089
  1707
  5670
  1743
  4812
  2311
  2063
  2620
  9036
  5728
  9570
  6834
   299
  4337
  3651
  3330
  1522
  5658
  4373
  3986
  2100
  8069
  7687
  8696
  1944
    81
  1623
  1821
  9250
  9899
  2343
  3022
  7501
  7756
  1737
  2804
  6049
  9293
    41
   190
  7292
  1683
   770
  4504
   788
  1810
  5813
  6130
  1699
  4412
  8287
  8646
    60
  5929
  9627
  4117
   726
  2181
  6809
  7895
  3947
   240
   529
  5541
  9776
  6408
   464
  9445
  6887
  9040
  8298
  5025
  8031
   551
   201
  5704
   980
  1023
  1232
  1161
  3484
  9366
  7102
  8099
  6885
  8559
    11
  1123
  3311
  3447
  9654
  9374
  3809
  8570
  6969
  8116
  6707
   876
  2731
  3139
  1674
   849
  1639
  5365
  2656
  2569
  5287
  7361
  8213
  5299
  1845
    11
  1149
  3989
  7620
  9373
  8792
  5779
  8848
  1744
  4100
  4550
   878
  9148
  6860
  3701
   226
   980
  9297
  7285
  7896
  3128
  1074
  8037
  2105
  3105
  4902
  1089
  2790
  9577
  7962
  9197
  8720
  8367
  2936
  7013
  6332
  6160
  9306
   544
  8653
  9221
  8283
  8461
  8401
  1907
  9250
  3897
   883
  2434
  3248
  7627
   981
  1299
  8482
  9968
  5417
  2078
   242
  2076
  9530
  2173
  9918
  1991
  4540
  9452
  4046
  2270
  3746
  5715
  7589
   179
  9940
  2359
  2748
  5480
  5150
  5889
  3429
  3833
  1269
   207
  8224
  5665
  6375
  7396
  1797
  4360
  6313
  5847
  3786
  5543
  2340
  1925
  2970
  7744
   578
  6715
  7973
  2244
  5023
  4335
  5377
  5966
  8437
  3756
   213
  2545
  7609
  6186
  6387
  8592
  5635
  5113
  3148
   186
  2479
  7369
  4221
  3505
  5793
  5777
  5972
  5623
  3236
  5960
  8931
   266
  6207
  6638
  2999
  7269
  7555
  6120
  1142
  6036
  8668
  7211
  3122
  9142
  3760
  5550
  7040
  5772
  5320
  7279
  3575
  8931
  9849
  8474
  2645
  2169
  9509
  6016
  5817
  7351
  4416
  8346
   195
  6754
   101
  3744
  6247
  4061
  9760
  9261
  8955
  6213
  9950
  4097
  9550
  4964
  1465
  6224
  4167
  2102
  9492
  7837
  5160
  5335
  1482
  3416
  9402
  6564
  5610
  5960
   644
   854
  4169
  1446
  1599
  7812
   757
  8643
  3775
  7694
  2169
  3373
  6531
    17
  8473
  8646
  9930
  6084
   563
  7269
   992
  6476
   798
  2248
  8212
    18
  1533
  4114
  6701
  9859
  5309
  9065
  9534
  3496
  5116
   481
  1527
  9164
  1494
  6575
  8344
  2984
   167
   271
  3176
  5984
  7929
  3649
  4096
  2248
  8435
  6338
  5503
  5432
  3003
  1052
  9618
  1511
  5475
  4200
  5990
  8867
  6814
  5552
  8043
  4326
  9100
  7810
  6691
  9795
  1542
  5682
  2023
  5212
  9614
  3021
  2121
  8792
  3635
  4664
  6920
  2674
  2925
  9390
  6399
  7204
   927
  7058
  7660
  9869
  1279
   950
  5152
  8107
  3963
  7662
  1375
  5476
  5997
  6596
  5662
  1685
  8948
   502
    67
  1488
   446
  1841
  4999
  4611
  5747
  9944
  7677
   167
  3203
  3706
  7611
  9602
  1724
  4955
  5445
  9336
  4220
  3582
  2273
  9111
  7773
  1458
  7397
  9546
  9748
  8685
  7083
  5832
  9553
  4009
   526
  2582
  7846
  8776
  4118
  5803
  9917
  9336
   710
  3583
  4904
  2545
  2528
  8334
  5094
  4018
   607
  8413
  8602
  7477
  3633
   987
  3914
  9209
  5702
  6403
  7919
  1316
  2110
  7126
  4423
  4456
  8164
  9203
  6920
  7069
  6049
  5008
  4546
  5023
  1504
  1124
  7460
  2875
  6845
  1316
   687
  7557
  5209
  4605
  5607
  1263
  1397
  8042
  6649
  4073
  9226
  5768
  5288
  3359
  2525
  9765
  2012
  9813
  2750
  8524
  3546
  7615
  5767
  5277
  4778
  6473
  3831
  2720
  4331
  5865
  4980
  5674
  8889
  6057
  2647
  9379
  6780
  5581
  6642
  8238
  7061
  6821
  7621
  7675
  1115
  6296
  6175
  4613
  2232
  8450
  9265
  4739
  7828
  7225
  1036
  8658
  2917
  1404
  7855
  7520
  3549
  3855
  1471
  5246
  9454
  6945
  2784
  4944
  6842
  2307
  9509
  8218
  7084
  2898
  1294
  2244
   961
  2854
  7956
  5843
  3001
  3770
  8542
  4585
  9560
  9504
  2633
  4611
  2303
  5639
  8028
  9195
  2163
  1110
  1024
  2412
  2953
   674
  9196
   464
  2837
  3136
   436
  1507
  9628
  3705
  3279
  9348
  8926
  6099
  8155
  3175
  4736
  5382
  9738
  5817
  8668
  4134
  6415
  8780
  9296
  8277
  4946
  5270
  7145
   783
   800
  1830
   350
  8071
  4131
  5781
  7895
  3277
  3485
  8543
  6773
  8945
  6382
  9708
  3883
   133
  8531
  9146
  1742
  6753
   500
  8676
  8735
  8629
   574
  5126
  6954
  8873
  3864
  9511
  5978
  8800
  6261
  1539
  7270
  4439
  1168
  8682
  9107
  2892
  6808
  6373
  6177
  7009
  4431
  4721
  6475
  8938
  2944
  8166
  3721
  6887
    91
  3528
  1163
  4379
  4140
   325
  3558
  8949
  8082
  3627
  9966
  8678
    70
  9489
  4397
  8928
  3230
  5309
  6455
  2068
  9824
  7516
  8802
  8110
    23
  1715
  4827
  6617
  2781
  2154
  9230
    44
  8958
  9649
  9760
   304
  2388
  4766
  7996
  5751
  7936
  9055
  1242
  5599
  7576
  2506
  4601
  8780
  9166
  2809
  1335
   787
  3725
  5378
  6863
  7206
  9614
  7840
  7475
  1664
  8583
  4170
  5542
  1129
  2898
  9422
  7397
  9968
  9538
  9795
  1289
  8913
  2738
  4199
  2855
   548
  8261
  4793
  5427
  3414
  3301
  7961
  5972
  9272
  1813
  3579
   670
   128
  8487
  9711
  4105
   320
  6617
  5141
  2024
  6935
  7673
  4408
  2051
  1152
  6409
  8059
  9483
  1462
  7742
  6113
  3663
  2895
  8752
   719
  8276
  3989
   860
  4121
  4991
  3741
  9075
  4325
  7089
  4436
  3507
  4404
  3032
  5141
  7318
  4467
  1588
  9630
  4018
  9526
  9383
  2486
  6103
  2219
  1461
  7972
  3647
  8873
  1905
  3283
  5572
  7871
  7296
    17
   379
  6681
    24
  3097
  8932
  8941
  2170
  2626
  9249
  7274
  3557
  9512
  9965
  3387
  7000
  5592
  5514
  4185
  3191
  3042
  4725
  9964
  7939
  2208
  8909
  4838
  9777
  2700
  4009
  7853
  6784
  8359
  7101
  2443
   309
  9443
  4201
  7527
  2366
  2219
  5317
  2129
  5911
  6778
  4162
  6925
  5689
  2019
  7639
  3797
  3282
  8197
  2577
  3048
  4524
  2220
  8504
  6380
  8678
  3507
  3213
  4120
  7160
  6660
  9481
  8781
  8305
  8474
  3259
  5508
  7540
  9112
  3053
  6795
  6370
  9989
  7055
  2844
  2155
  4908
  2685
  2934
  3588
  9332
  5613
  4256
    32
  3318
  1098
  4807
  4954
  4323
  6385
   709
  9999
  3579
  2097
   608
  6432
  2793
  2690
  1690
  2955
  5736
  1336
  4362
  6025
  2609
  3198
   391
  8717
  3576
  6599
  6067
  6013
  1545
  3056
  4368
  8354
  5020
  1858
  4736
  4505
  9273
  1407
  3913
  2154
  7370
  8802
  9581
  7033
  9435
   232
  5862
  9738
  5831
  1398
  3931
    65
  1615
  9128
  1175
  2573
    75
  8722
  2213
  1417
  8019
   206
  2964
  7306
  4668
  2890
  5479
  7637
  5784
    54
  9013
  5250
    48
  2433
  8226
  9098
  3050
  8202
  9340
  9352
  5068
  9670
  9437
  7380
  3988
  2731
  7192
  5355
  6258
  7378
  9609
   959
  7933
  6303
  6007
   324
  8844
  2480
  7991
  4383
  8113
  6501
  8129
  6583
  7915
  2900
   774
  5034
  3883
  8864
  6802
  5557
  9922
  3330
  8058
  1538
  7017
  9608
  1214
  3988
  1674
  6468
  9948
  2353
  9204
  8834
  1961
  9060
  9335
  2892
  6859
  5276
  1527
  3510
  9016
  6175
  6066
  7289
  8499
  5902
  5247
  8713
  1935
  2963
  7386
  4882
   246
   531
  7687
  3960
  4466
  7977
  8588
  9646
  3787
  4960
  1042
  8234
  3230
  3452
  5780
  7301
  1325
  1409
  4174
  7455
  3901
  1108
  5777
  4624
   280
  2273
   789
  7926
  9864
  8552
  7503
  3443
  6525
  4075
  5002
  8303
  5696
  4147
  3412
  5883
  9056
  5591
  3455
  7895
  3740
  1326
  5804
  7998
  1062
  2678
   820
  5017
   825
  3990
  4754
  8370
  5946
  5174
  5654
  2356
  8747
  1612
   204
  1392
  4925
   426
  3061
  8816
  9261
  3555
  5680
  6414
  9723
  8620
   362
  5152
  4500
  2956
  6533
  5268
  7756
  9077
  5753
  6711
  4566
  9347
  1127
  9967
  8526
  7972
  8737
   825
  1341
  9866
   572
   752
  6744
   979
  5705
  7017
  5708
  7064
  7200
  4937
   922
  2976
  4832
   282
  1705
  9933
  5481
   831
   673
  2786
  6118
  6277
  8529
  5534
  8924
  1752
  3962
  8042
  8021
  7836
   403
  1923
  4635
   807
  2423
  2690
  4856
  4589
  2083
  7767
  8410
   287
  4546
  3930
  3612
  6281
  1455
  8487
  2624
  5985
  7449
   408
  6316
  8825
  2574
  5671
  5130
  6152
  3849
  7015
  8891
  4458
  6854
  9672
  3334
  7768
  8747
   112
  1054
  9008
  8854
  7513
  8991
  9777
   755
  2616
  2813
  5919
  5872
  6839
  1135
   970
  7899
  8085
   195
  7875
  9518
  3670
  4589
  1443
  6352
  4120
  4147
  1703
  5910
  4488
  6639
  4604
  5257
  9890
    58
  4233
  5330
  7326
  3332
  4211
  2976
  3556
  9461
  1458
  2937
  3232
  6682
  5184
  6985
  5611
  9870
  1603
  8294
  7655
  6866
  5790
  7964
  8454
  6218
  1175
  3352
  1991
  2999
  2433
  7696
  3040
  9327
  2117
  3792
  3374
  5345
  2948
  7600
  9785
  5767
  1029
  5604
  6351
  7758
  6580
  7229
  8484
  5094
  1708
  7320
  1037
  7078
  1116
  1352
  6316
   874
  2091
   229
  9430
  6254
  9914
  3641
  3112
  6818
  9337
  9673
  5193
   138
  8258
  8723
  8946
  7286
  8449
  4410
   855
  1111
  4821
  5890
  2915
  4785
  1891
  2458
   942
  2379
  6220
  7921
  1103
  1452
  9213
   687
  6192
  8528
  2846
  6350
  5842
  3312
  9960
  1657
  8069
  4033
  3082
  1552
  6678
   281
  7643
  6777
    84
  6729
  2130
  1493
  6409
  8175
  1360
  5735
  8741
  4233
  8534
  3330
  6618
  3138
  5771
  8769
  2899
  7892
  6888
  6794
  6824
  5886
   742
  1572
  8564
  5973
  8086
  2472
  6469
  9505
  6000
  4560
  9010
  6603
  6882
  1916
  6998
  3440
  5802
   518
  1125
  8100
  2318
  5464
  4141
  6637
  6884
  8724
  4389
  1578
  3963
  6913
  1154
  8314
  4389
  8146
  4968
  4320
  2949
  2638
  5572
  9804
  1037
  6018
  9844
  2511
  3673
  4841
  8730
  1803
  6816
  1006
  7364
  4221
  5673
  6144
  2107
  1457
  5631
  5756
   712
  4605
  2108
  8117
   941
  8350
    16
  6916
  7071
  4951
  1976
  1726
  9787
  3180
  2220
  5275
  7808
  5102
  2429
  6504
  1767
   944
  9153
   605
  2790
  3074
  1522
  5707
  9975
  6357
  6172
  5230
  9932
  3484
  3320
   358
  3183
  2873
  1495
  3068
  8131
  9419
  5902
  8662
  5674
   972
  1713
  3546
  2007
  8343
  1108
  7834
    80
  8175
  3711
   390
   591
  4758
  6438
  4200
  2139
  1144
  3473
  3388
  1068
  8983
  7297
  9576
  1340
  2452
  9980
  6417
  5450
  2424
   556
  1344
  2589
  1909
  4760
   368
  8589
   403
  3964
  8124
  8753
  4230
  4665
  7501
  9162
   482
  1797
  9676
  5004
   724
  8940
  4747
   919
  7645
  5598
  7497
  3170
  5475
  4397
  9656
  4117
   778
  2397
  7566
   431
  7794
  6413
  9543
  3007
  4468
  1011
   179
  5949
   990
  9676
  8339
  4186
  2828
  4182
  1490
  1427
  5771
  3649
  2717
  5509
  4186
  6435
  2386
  8518
  9767
  8554
  5517
  7286
  2584
  6084
  2323
  2430
  8230
  1584
  5453
  1052
  7141
  3526
  9369
  9608
  8060
  3505
  4874
  4573
  6241
  3765
  2923
  4310
  1644
  9215
  6951
  1315
  7461
  7162
   684
   211
  1256
  9827
   400
  2990
  1579
  9158
  9956
  1955
  3336
  5879
  8618
  6981
  4316
  2645
  9231
  5427
  6033
  7226
  3516
  3609
  9675
  4782
  4319
   209
  1128
  7045
  6178
  4047
  5525
  2818
  3802
  6140
  1922
  8040
  8653
   937
  5391
  3610
  2979
  2257
  3106
   968
  8775
  6474
  6116
  5548
  2215
  6913
   569
  6897
  9431
  5229
  6462
  7088
  4166
  3361
  8330
  6234
  5799
  5042
  9814
  1519
  4067
  5496
  5808
  1564
  8929
  7529
   682
  1384
  3919
  7501
  8405
  7967
  5526
  4946
  7214
  1109
  3183
  1496
  3646
  6358
  8590
  9845
  5253
  9546
  6543
  7505
  6218
    14
  8752
  7850
  9245
   295
  6043
  6039
  4780
  3185
  2771
  8533
  5566
   225
   305
  8852
  4666
  4828
  1392
  8971
   454
  1108
   817
  8288
  7594
   684
  5525
  1389
  1908
  2841
  2338
  7089
  4601
   290
  1935
  2734
  8028
  6778
  9872
  9686
  6972
  7831
  8146
   120
   107
  4330
  6026
  7497
   935
  4768
  6049
  9548
  3115
   857
  7740
  1986
  6651
  4754
  9309
  9218
  1320
  1490
  2474
  7896
  8565
  4065
  8093
  2632
  7004
  9485
  3230
  5480
  8601
  4780
  9614
  2484
  4864
  9776
  3623
  7747
  1839
  1791
  7741
  7141
  9639
   135
  7718
  8427
  1569
  8429
  6619
  2498
  2879
  4560
  3221
  5720
  5037
  6566
    91
  4808
  1503
  7837
  3629
  1108
  9472
  5617
  6810
  9691
  2381
  7859
  5515
  3404
  5488
  6834
  4546
  8151
   943
  2668
  5932
  5910
  3976
  7573
   425
  8678
   573
  1817
   407
  3843
  1356
  9010
  9891
  5060
  8604
  9147
  5295
  3881
  9333
  4081
  3429
  1687
  7465
  2391
  1365
  7830
  8322
  2100
  5045
  2306
  8071
  7181
  8540
  8953
  9731
  5692
  3459
  6091
  5771
  2387
   926
  3896
  5759
  9448
  6214
   875
   196
  3576
  3717
  6958
  5933
  3829
  4028
  2501
  8907
  3801
  8183
  9311
   292
   845
  3388
  3484
  1755
  8382
  1368
  2815
  5010
  6520
  2156
  8378
  7524
  9787
  5382
  2973
  3894
  3177
  7783
  6416
  8950
  5337
  3112
  5518
  5334
  7853
  9412
  8326
  8065
  3669
  3156
  5649
  1866
  8064
  1555
  4579
  6046
   669
  1086
  7822
  4741
  1266
  4034
  8281
  7023
  4411
  6666
  5044
  4129
  6007
  8910
  4803
  1747
   220
  3053
  6631
  7896
  3109
  2735
  6746
  3215
  6398
  6155
   807
  4914
  4928
  6720
  1038
  6493
  2322
  1414
  2936
  6727
  5014
   102
  1643
   565
  1398
  2532
  4573
  9855
  4892
  8213
  7670
  3330
  5988
  7100
  9272
  1340
  5529
  9454
  2415
  4701
  7226
  9090
  5740
  9174
  5262
   508
  7319
   362
  5076
  6196
  3081
  3368
  6766
  7733
  8957
  1923
  5945
  1467
  6527
  6742
  9786
  6408
  9896
  6233
  3300
  8071
  5425
  5902
  3329
  1416
  5691
   619
  9928
    31
  7677
  5874
  2412
  6799
  7679
  3424
  7615
  7118
   290
   583
  1153
  6418
  8116
  5432
  8032
  8392
  4817
  2527
   377
  2849
  7353
   150
  2118
  6182
  1721
  2694
  6957
   261
  4774
  7454
  5182
  2662
  7437
  6751
  8436
  2815
  8413
  1067
   795
  4280
  5806
  1301
  2946
  4163
   223
  5330
  8973
   898
  4466
  5194
  6737
   479
  6688
  7243
  5850
  4894
  7678
  2607
    39
  3832
  6325
    63
  6219
  3006
  5589
  5586
  6364
  8472
  5268
  2743
  6558
  9995
  2190
  3606
  5304
  1287
  1504
  5314
  2170
  4771
  1742
  9102
  4012
  4279
  5620
  6678
  1871
  9934
  3821
  5368
  4463
  3451
     6
   751
   905
  3727
  6246
  7141
  4210
  2205
  2407
  9456
  4539
  9207
  3117
  5470
   121
   213
  7978
  6120
  4904
  4218
  7804
   118
  5711
  7905
   714
  4714
  9955
  6874
  2347
  2638
   292
  6377
  3388
  2142
  4394
  8744
  4208
  5104
  6711
  4171
  9953
  1297
  5554
  9254
  4696
  5881
  4487
  6721
  1436
   268
  3000
  3686
  7096
  4473
  9426
  3453
  7734
  6409
   331
   211
  6018
  9940
  6401
  1647
  3205
  7080
  3950
  1843
  9478
  2134
  8174
  2133
  3399
   320
  4199
   807
  9740
  8130
  3869
  8229
  3647
  1925
  2492
  1684
  9668
  6326
  4981
  3891
  2123
  4754
  4445
  3734
  1865
   616
  5520
  6663
  8146
  5753
  4131
  4695
  1498
  2711
  6076
  1803
  7180
  9884
  8272
  9115
  8951
  2821
  2782
  2375
  5202
  7732
  1755
  3085
  6421
  2185
  3188
  9124
  3476
  2322
  8718
  8603
  4801
  4672
  8092
  7192
  5255
  9481
  9773
  6732
  2895
  2656
  2535
  3343
  4288
  4743
  8975
  5453
  5002
  7692
  1164
  4704
  4007
  7923
  7936
     2
  4832
  6307
  5252
  4631
  2971
  6199
  1302
   271
  8531
  5029
  9349
  9296
  4945
  5218
  5404
  4608
  4427
  1033
  2483
  5992
  7090
  2819
  8152
  1296
  6565
  7958
  3386
  6840
  3900
  7320
  6600
  6166
  7417
  7086
  1417
    36
   898
  1596
  9411
  8340
  8189
  9382
  4870
  1527
  7297
  5537
  5993
  2917
  3794
  5041
  7468
  5088
  4626
  9226
  2549
  7750
  7520
  8436
  6135
  5232
  8430
  1648
  1547
  8747
  9257
  2444
  8320
  9400
  7870
  4160
  8716
  6738
  7153
  8026
  9487
  9054
  6188
  8740
  9471
  9697
   240
  2260
  3305
  8886
   566
  5372
  7276
  2274
  7244
  4587
  1741
  8371
  1031
  9363
  2093
  3818
  9099
  6949
   495
  2682
   457
  5714
  9860
  1236
  5789
   172
  6821
  9269
  7927
  7474
  6261
  2459
  6451
    78
  1700
  5744
  8081
   525
  5648
  3630
  4750
  4015
  8844
  3695
  2575
  5412
   347
  8659
   753
  2700
  4004
  5229
  5223
  4746
  9343
  8516
  5363
  1576
  8648
  6428
  7200
  7178
  6939
  5342
  2653
  5792
  6373
  8505
  7872
  6731
  6295
  1612
   638
  8155
  4071
  3705
  1511
  7848
  4575
  3153
  1533
  5640
  9184
  8319
  4708
  6370
  6040
  1532
  9646
  9553
  2199
  2829
  8791
  7333
  7500
   971
  2155
   528
  5804
    65
  9676
  2349
  7393
  4052
  9702
  9198
  8649
  1392
  3241
  7783
  3789
  3463
  9192
  7055
  1930
  6065
  4566
  3584
  1635
  9638
  8571
  9338
  8191
  9853
  1939
  2441
  5184
  5838
  5063
   832
   467
  1453
  8754
  4675
  7242
   710
  3588
   695
  3518
  1628
  6089
  7592
  7566
  4068
  7327
  3120
  2791
  8718
  4823
  4884
  3103
  9610
   804
  8968
  2104
  7046
  6092
  5538
   571
  8426
  6777
  4582
  3863
  9883
  5257
   191
  7105
  2465
  9366
  6924
  2518
  1108
  5518
  1117
  5698
  3476
  1914
  4076
  2779
  9282
  8103
  7446
  7279
  9959
  5051
  4848
  7543
  8672
  2904
   467
  1601
  8942
  7946
  8927
   396
  5152
  7493
   440
  4380
  4788
   869
   649
  8354
  3573
   683
  1073
  9157
  8371
  4992
  8396
  8578
  5337
  7254
  8556
  3344
  6652
  4318
   952
  8343
  3309
    96
  5863
   655
  2073
  6627
  2684
  9901
  4321
  6926
   420
  4535
  5075
  6200
  9552
  5200
   862
  2966
  3314
  8224
  8901
  6827
  1155
  4201
  3624
  8345
  7228
  6185
  7465
  4798
  3204
  3831
  3592
  3600
  9993
  6193
  1151
   637
  3105
  6602
  4142
  3357
  9358
  4445
  3712
  6016
  4281
  8247
  9431
  3656
  9886
  9940
  5333
  3651
  4992
   222
  1043
  7406
  1887
  6201
  9242
  3124
  1483
  7300
  6846
  5743
  1908
  9458
  8816
  5845
  5336
  8171
  9988
  1715
  7305
  5312
  4091
  3211
  3871
  6526
  5588
   595
   422
  8692
  1108
  2024
  4972
  2256
  2468
  5706
  7499
  1291
  3708
  8990
  3256
  2047
  9372
  7400
  4539
  3071
  9202
  3054
   150
  3262
  1054
  8530
  2646
  7111
  8091
  6822
  5110
  5808
  2605
  1915
  2595
  6810
  1930
   388
   697
  1834
  7842
  3804
  4686
  8807
  2913
  8509
  2285
  9670
  6697
  7579
  6130
  6433
   876
  2460
  9526
  8690
  4488
  8612
  2447
  4101
  6668
  4284
  6589
   503
  2865
  7792
  8876
  1014
   542
  7050
  9857
  1967
  5598
  6995
  8637
  3188
   649
  7102
   510
  4230
   335
  7717
  9903
  4184
  8767
  5650
  5175
  7744
  9657
  9225
  5330
  6330
  4819
  4841
  7202
  9205
  9612
    44
  8991
  6288
  4232
  5398
   749
  1190
  7697
  8834
  9468
  4913
    12
  7458
  8872
  6824
  3356
  2527
  8618
  6693
  6232
  9440
  6646
  5554
  3152
  1898
  9690
  8795
  4843
  9199
  2986
  4947
  5537
  6595
  7578
  8349
   644
  1807
  5741
  3479
  9992
  3231
  7583
  1368
  2843
  1278
  4492
   562
  8940
  9682
  7488
  8370
  3172
  7590
  5298
  6803
  7324
  6398
  8470
  9885
  9616
  5552
  7189
  9464
  4712
  8823
  3799
  2927
  2661
  5411
  8987
  7435
  5767
  6558
  2052
   466
  4653
   257
  5990
  6111
  1860
  7157
  1248
   381
  8403
  9359
  7757
  5368
  5184
  7736
  6645
  4308
  2480
  2753
  9753
  1225
  9089
  2187
  8365
    89
  8107
  1411
  8307
  5929
  9052
  9025
  6956
  3533
  1381
  5446
  4080
  6213
  6620
  7636
  6323
  7860
  1319
  6669
  7367
  4840
  4144
  1599
  2877
   907
  5354
  9905
  2502
  3175
  8144
  7262
   134
   758
  4709
  6718
  4842
  8992
  3391
  3409
  6390
  5994
   749
  9366
  7471
  5901
  8191
  8338
  9827
  9872
  3880
  7188
  5502
  5479
  5186
  2063
  6132
  5706
  5562
  6569
  6877
  6318
  6423
  1006
  2177
  2689
  7403
  6444
  9534
  7763
  3306
  9831
  6480
  7105
  5788
  7613
  8438
  3675
  8705
   958
  5548
  6880
  9056
  7553
  6368
  5916
  6198
  9406
  7332
  5897
  9470
  9740
  9885
  3787
  1409
   866
  7609
  1868
  9328
   232
  1177
  3801
    44
  4519
  3913
   768
  5402
  6420
  9005
  7481
  9747
  7065
  9666
   160
  6867
    79
  4740
  2311
  7849
  5809
   586
  6498
  2228
  3819
  9078
   257
  8645
  1932
  8223
  1346
  4225
  9503
  4189
  6877
   782
  1099
  8758
   962
  2577
  9515
  8886
  5423
  6837
  4639
  2059
  4080
  4775
  2054
  1120
  1154
  1839
  7716
  6783
  4118
  6556
  7404
  4648
  1533
  7902
  1349
  4496
  3682
  4829
  3013
  9440
  9666
  8892
  2751
  8028
  6580
  3283
  5565
  3042
  2939
    44
  2765
  3332
  8448
  2936
  9959
  4648
  4040
  9321
  6350
   410
  8183
   106
  6942
   707
  4379
  4918
  3236
  8071
  8418
  8825
   472
  8727
  5119
  5987
   520
  9071
  1006
  9471
  1517
  7361
  3971
  3229
  4456
  9073
  2026
  4104
  3210
  2063
  2877
  5595
   978
  5938
  8285
  4940
  2972
  5946
  3805
  1343
  4430
  5261
  8909
  5555
  6396
  1060
  4004
  4738
  7928
  8925
  5199
  5834
  2774
  1365
  3767
  8898
  5111
  9597
  1335
  7052
  7420
  6317
  2548
  4548
  9245
  5288
  1453
   443
  5895
  4299
  5329
  8947
  8991
   212
  2660
  6648
  5987
  7514
  6853
  4093
  6707
  8677
  8845
  7967
  8047
  4813
  1241
    91
  2948
  5389
  7255
  9812
  9611
  7885
  9806
  8933
  5874
  3516
  8944
  1761
  3759
  3055
  7369
  5873
  2267
  6330
  7890
  2009
  3938
  7749
  6026
  1677
  7412
  3609
  5740
  2998
  3598
  5249
  3682
  2309
  5798
  5177
  1435
  4663
  3387
  1132
  5838
  9184
  1553
  9917
  8943
  4435
   900
  5413
  6814
  4878
  4117
  8872
  9253
  3500
  9998
  6956
  9114
   446
  8518
   947
  6365
  2154
  1131
  5307
  1646
  2538
  4055
  3463
  4712
  6069
  1469
  5927
  8305
  3796
  9054
  6765
  1476
  5333
  2496
  1839
  1574
  7793
  7385
  8754
  8342
  8415
  7597
   736
  6821
  4024
  8434
  9889
  1880
  7689
  2240
  8420
  6867
  7763
  9606
  2019
  8768
  4863
  1301
   683
  1931
   439
  2885
  4977
  8606
   281
  7660
  8263
   372
  4973
  6509
   115
   744
  7365
  7233
  1229
  1404
  6563
  8265
  6554
  7360
  6494
  2782
  8345
  8203
  3477
  4811
  5332
  9545
  3419
  1072
  8691
  3145
  8480
  8659
  5453
   372
  9352
  6509
  3612
  5698
  2461
  1563
  2907
  2273
  8187
  4093
  9658
  2437
  7791
  5110
   360
  5145
  4095
   529
  6762
  5090
  9575
  2823
  2420
  8843
  7914
  8211
  7055
  1065
  4297
  2102
  8995
  2558
  8595
   843
  9312
  6403
  6467
  1164
   533
  1812
  5763
  7761
  4054
  7760
  9334
  4422
  3505
  9925
  3385
  2322
  3336
  8743
  7149
  3153
   960
  2971
  9801
  2871
  4074
  5538
  4994
   124
  6591
   435
  3423
  6840
  5022
  5795
  3806
  7634
  1555
    62
  5335
  2984
  6233
  2201
  2415
   848
  2373
   585
  3640
  7245
  3480
  7738
  5251
   663
  6704
  1928
   760
  1434
  8321
   492
  4053
  5049
  9600
  6189
  5531
  1543
  6486
  4683
  3600
  6475
  2637
   175
  8990
   983
  8267
  1276
   104
  9894
  4780
  6530
  8477
  3493
  7927
  3839
  4095
  7330
  5358
  4265
  1896
  1472
  4481
  8277
  1971
  1167
  4601
  3749
  7679
  6607
  6026
  9910
  8598
  1715
   541
  3126
  6883
  2313
  1916
  3846
  7834
  9105
  1634
  9707
  9937
   411
  9708
  7599
  8884
  2336
  8001
  5068
  9204
  3667
  2829
  4654
  3968
   164
  7507
   107
  5838
   290
  5789
  7290
  2123
   982
  2278
  5974
  7338
  3695
  2487
  4694
    74
  6293
   726
   713
  3351
  8365
  4286
  7680
  4004
  6526
  2543
  8370
  3226
  7407
  7871
  9393
  1022
  3572
  7235
  9282
   310
  5714
  9840
  5521
  3021
  9841
  7016
  1770
  1908
  4664
  8816
  3722
  9058
  3761
  4157
  5434
  9274
  3987
   716
  1443
    49
  8232
  7824
  4043
  7396
    47
  4576
  9572
  9450
  4604
  9968
  4415
  5966
  2387
  8684
  6951
  6598
  8322
  6349
  6539
  1096
  4540
  5170
  6975
  2851
  4903
  9366
  9873
  6144
   134
  5719
  6003
  5392
  6482
  7324
  5973
  3370
  1276
  5224
  3391
  2420
  8877
  5149
  1088
  1452
  7388
  9899
  7547
  7650
  9523
  5984
  7474
  8980
  4536
  3374
  8288
   202
  8765
  9553
  6144
  8833
  5131
  3795
  1675
  9062
  5119
   209
  8432
  5993
  6816
     1
  2261
  2527
  8746
  6918
  2304
  7208
  6523
  4694
  2969
   449
  9792
   296
  5787
  4808
  5477
  9480
  8788
  4078
   999
  3529
  1228
  8730
  8989
  8149
  4080
  9474
  1730
  5737
  5675
  3473
  2133
   406
   564
  6468
  8983
   309
  1333
  1879
  1136
  3679
  5394
  7182
  4813
  1540
   704
  8776
  8505
  6999
   215
  5359
  4090
  4726
  3030
  2398
  2984
  7393
  1659
  5317
  1060
  7719
  3936
  8701
  5818
  4205
  7039
  6024
  2289
  6835
  8718
  3165
  2752
  3689
  8086
   184
   641
  1928
  5680
  7863
  1432
  9626
  3352
  5949
    37
  6676
  5027
  5722
  2507
  7079
  3102
   252
  6762
  9161
  1623
  7892
  5361
  3000
  2376
  6436
   369
  5374
  4876
  2268
  4949
  5512
  1674
  8234
  9061
  8076
  1930
  8070
  6491
  1818
   892
  5432
  8259
  6355
  6037
  5425
  8862
  6446
  8322
  2421
  1689
   301
  2320
  1687
   663
  6732
  6986
  9044
   256
  2566
   921
  1929
  6255
  8161
  6960
  5460
  3297
  5442
  8872
  3804
  6851
  3516
  7001
  9806
  3173
  3763
  3562
  2240
   989
   875
  2909
  6114
  9720
  5601
  3576
  6389
  3419
   913
  4398
   127
  2976
  7884
  2445
  7230
   964
  5154
  6085
  4118
  3617
  9041
  6614
  2881
  9740
  9295
   842
  5073
  4052
  2560
  6849
  3772
  7769
  3887
  5761
  7150
  3466
  6012
  9265
  3895
  9771
  8260
  7184
  8847
  2261
  9190
  9946
  7162
  4371
  4351
  3745
  7898
  8808
  3766
   600
  2523
  4463
  1004
  1461
  7280
  2016
  3826
  6876
  6593
  7732
  9733
  3835
  8474
  2546
  4232
  7593
  9425
  9571
  9910
  3869
  3113
  6570
   764
  1143
  2330
   555
  9890
  8523
  3220
  5758
  4825
  8521
  9369
  6559
  4706
  5987
  3518
   370
  5279
  6809
  8699
  1731
  2194
  4575
  8133
  1661
  1357
  2197
  7275
  7252
  7471
   628
  2064
  1698
  9689
  3286
  8024
  1730
  4023
   440
    24
  3560
  6225
  2934
  2184
  5959
  2475
  6123
   527
  4275
  3933
  8887
  9793
  7708
  5697
  2308
  8618
  8177
   229
  7640
  2220
   838
  3067
  9218
  4303
  4075
   993
  3587
  3661
  1516
  3670
  2764
  3788
   779
  9027
  9607
   911
  3888
  5871
  4931
  2285
   496
  5987
  6755
  2080
  3863
  3242
  9811
  7953
   528
  3811
  1197
  7084
  8934
  7004
  2129
  1631
  3192
  9326
   355
  4135
  9416
  1989
  7765
  9709
  5766
  5901
  8140
  1045
  7941
  7302
  1727
  5947
  7738
  2447
  7773
  1345
  7096
  2563
  6858
   858
  9297
  8486
  3998
  2438
  3244
  3717
  9822
  3639
  2572
  3818
  1417
  6446
   315
  6912
  8828
  4998
  6395
  3310
   307
  1715
  7663
    90
   669
  9976
  2605
  6538
  8526
  6484
  5864
  7364
  8974
  3575
  4693
   666
  8010
  6220
  9113
  6401
  6700
  6346
  6349
  1674
  7521
  6025
  5754
  8170
  5999
  6133
  9811
  8130
  2308
  2125
  8690
  1654
  4541
  3254
  4872
  1859
  2160
  7377
   439
  8607
  2919
  2276
  3728
  7221
  6637
  4330
  2550
   633
  1504
  9524
  9792
  1687
  2850
  1756
  3431
  4393
  3318
  4622
  3159
  6667
  9468
  1798
  3365
  6773
  9358
  1044
  2466
   356
  4455
  1036
  7126
   895
  9318
  8889
  9356
  2935
    91
  6087
  4833
  7254
  9028
    47
  6121
  2647
  4262
  9818
  6645
  5682
  4524
  6212
  6625
  4155
  3292
    48
  8436
  7134
   796
  6498
  2655
  9914
  4442
  1425
   698
  8041
  5615
  1421
  7389
  2119
   500
  6990
  1215
  9254
  2210
  2768
    29
   749
  1100
  4226
  8850
  5884
  9893
  1886
  7912
  9197
  2891
  1605
   469
  4529
  2275
  1164
  9400
  3717
  6008
  8279
  7422
  8730
  5021
  8353
  1837
  7708
  4788
  8476
  8754
  1691
  1787
  4483
  6659
  5125
  5696
  9853
  2920
  6452
  3004
  8777
  3514
  6233
  8376
  6650
  3467
  5841
  7967
  2311
  3828
  1501
  4371
   518
  9551
  5705
  2347
  6746
  8898
  2905
  1910
  9309
  2823
  6204
  7069
  3006
  9602
  5660
  1035
  9381
  5974
  7201
  2998
  7096
  5891
   219
  1761
  6858
  8744
  7138
  9748
  9202
  6135
   605
    90
  3512
  7982
  5866
  3311
  9589
  4449
  9192
  4047
  5201
   132
  9789
  3356
  5828
  5359
  4632
  9132
  8552
  1605
  3936
  7640
  7117
  6371
  6933
  9320
  8321
  3973
  2479
  5845
  5737
  6556
   176
   837
  5005
  5979
  6765
  6239
   256
  8640
  6389
  9952
   821
  9476
  3543
  5477
  7207
  4826
   150
  9843
  7707
  9354
  9894
  1200
  8775
  3892
  3674
  3820
    88
  8265
  4937
  9729
  4626
  2397
  8051
  8039
  4144
  4126
  5050
  4196
  8690
  8058
  6943
  9112
   862
   128
  2675
  3060
  1810
  4737
  3257
  3992
  9489
  9529
  1105
  7412
  4780
  2218
   775
  2927
  5529
  5856
  7869
  1227
   787
  9935
  3399
    54
  9658
  7713
  5128
  7957
  7609
  3476
  7549
  2977
  3247
  4118
  1959
  9365
  2335
  7152
  9162
  2097
  3637
   737
  3816
  8691
  9769
  7697
  7720
  1364
  7079
  2759
  3841
  3325
  8424
  3727
   876
  8119
  6185
  2952
  1935
  3277
    47
   191
  6386
  8680
  3730
  4013
  9624
  2207
  4311
  5719
  9595
  9242
  7805
  6987
  9172
  5376
  9895
  6883
  6130
  7128
  6023
  9938
   966
  8304
  7795
  5385
  7377
  3129
  7630
  7180
  1258
  4877
  3278
  4385
  5789
  9542
  2245
  6742
  7565
  8926
  7097
  2258
  6344
  9197
  4524
  9775
  4654
   827
  8940
  8365
  7038
  1782
  9885
  8893
  8148
  3403
  7338
  3243
  4171
  1653
  8727
  1574
  7753
  1140
   696
  3857
    11
  5393
  9030
  2664
  8369
  7846
  6704
  7989
  2190
  3151
  5012
  7180
  1348
  1481
  6334
   107
  3239
  7242
  1784
  2132
  5214
  6641
   528
  6275
  8129
   464
  7278
    68
  6838
  2424
  3024
  3600
  9559
  1535
  7574
  3772
  8298
  8998
  1513
  4551
  4653
  6758
  5664
  8807
  5683
  5626
  2386
  3525
  4687
  5827
  2420
  3665
  4548
  5742
  9090
   938
  8126
  2183
  3672
   941
  8657
  6255
  6161
  2349
  4160
  1347
  7401
  7396
  8501
  2862
  2432
   836
  3645
    12
  5243
   381
   736
  4090
  7646
  7135
  5610
   442
  2530
  9741
  9300
  8856
  9996
  4695
  2206
  7371
  1268
  5536
  1497
  1240
  6295
  6865
  1727
  9964
   221
  9227
  8313
  4309
  5576
  6470
   979
  7905
    56
   136
  1953
  8735
  4450
  6817
  8729
  8359
  9740
   492
  9991
  2506
  1983
  3346
    94
  8061
  5251
  5568
  3338
  4266
   148
  8640
  5948
  9570
  7006
  9455
  7443
  7531
   142
  6849
  6962
  9249
  2308
  3616
  4601
  2730
  4790
  8660
  7110
  6600
  1544
  1701
   511
  7818
  4913
  8879
  3687
  3407
  3685
  5465
  5589
  1327
  2956
   287
   244
  9204
  2637
  5158
  2670
  4890
  7024
   564
  6727
  5657
   656
  9264
  4398
  7204
  9366
   258
  9943
  4229
  4581
  4864
   538
  6143
  9435
  2259
  6126
  5782
  5152
  9327
  5529
   882
   561
  1700
  9990
  6937
  1829
  1288
  4972
  5310
  1613
   550
  7955
  9602
   815
  9494
   941
  3540
  6987
  1001
  5736
  2914
  2629
  9207
  1114
   622
  5888
  4870
  9565
  7369
  7449
  5162
  7304
   901
  9580
  7795
  8670
  4127
  2019
  2181
  2352
  3191
   864
  4550
  1938
  8696
  9085
  2545
  8725
  9480
  4244
  3832
  5222
  2364
  6969
   844
  1841
  9628
  2903
  1618
  2944
  4102
  9521
  6095
  5746
   666
  1329
  8777
  3248
  8925
  3293
  7251
  5765
  9494
  2967
  4156
  8023
  2930
  6955
   535
  8320
  2988
  7039
  3490
  6444
  7714
  6265
  6142
  1189
   949
  1945
  7060
  3409
  2503
  2512
  4428
  9794
  5531
  4531
  2922
  1740
    89
  3048
  7851
  7401
  7072
    44
  8457
  1502
  4740
  6678
   510
   187
  9116
  1324
  7577
   627
  9020
  7135
  2671
  6422
   903
  2811
  9885
  4458
  6160
  3583
  6783
  9454
  5889
  6836
  9693
  5481
  6024
  1196
  5061
   527
   925
  9614
  4030
  1539
  1396
  5146
  1212
  6483
  1327
  8332
  4437
  6455
  2310
    87
  2501
  8560
  7505
   452
  5083
  2608
  2577
  8868
  2790
  6268
  4882
  4145
  7982
  7288
  5599
  5655
   995
  3747
  2319
  7490
  8867
  2895
  3577
   539
  6561
  8064
  6164
  8895
  7282
  2401
  2801
  8912
   906
  3983
  7580
  2525
  2926
  1223
  5254
  4807
  2350
  6675
  9919
  4303
  5293
  5611
  7475
   418
   316
  4807
  8302
  9333
  5104
  8875
  3941
  2876
  7922
  3380
  6513
  2352
   179
  4912
   743
  8396
  6213
  3391
  4903
  2172
  8920
  3393
  3890
  7497
  3048
  8984
  5219
  2666
  3883
  8816
   571
  4033
  7599
  2959
  7123
  6856
  2011
  3112
   320
  5887
  8827
  3765
  7140
  4908
  1632
  7718
  3375
   200
   913
  4433
  9885
   948
  1547
  4347
  9280
  9304
  8353
  3825
  1299
   629
   653
  2605
  1542
  3611
  7666
  3352
  2033
  8115
  3207
  7164
  1334
  2232
  1500
  2504
  6385
  5148
  9435
  3734
  9374
  4149
  4048
  8360
  3738
  5484
  2961
  8003
    96
  2681
  3409
  5196
   196
   851
  7940
  9481
  3941
  3251
  6473
  1647
  1796
  9344
  1118
  1034
  7120
  7223
  3124
  1212
  4749
  7705
  8455
  8882
  7330
  9825
  8393
  2899
  6573
  7366
   482
  9315
  9763
    97
  7888
  1999
  9467
   204
  2649
  3597
  8373
  9039
  6834
   291
  5394
  1911
  9186
  9550
  4859
  4518
  2774
  7488
  3775
  9096
  4676
  8072
  6667
  5940
  7904
   118
  3506
  9257
  4792
  8232
  8195
  8446
  5421
  6636
  6921
  7254
  1519
  6827
  7513
  5926
  2351
  7719
  8862
   988
  9862
  5910
  5983
  4741
  6198
  8297
  9910
  1417
  7897
  1409
  1209
  4663
  6902
  3059
  2008
  3994
  5809
  9312
    21
   333
   240
  7895
  3249
  4727
  9096
  9223
  7127
  4098
   427
  7633
  8649
   790
  4385
  9960
  6975
  3046
  1822
  2292
   647
  9454
  9595
  5981
  9746
  7418
  1173
  4704
  5411
   382
  4017
  5926
   652
  2793
  6761
  6376
  8991
  8332
  6712
  7183
  3385
  6165
  8217
  6060
  4980
  2004
   665
   472
   266
  2884
  6781
  8021
  8534
  1173
  6820
  8531
  5888
  8593
  4554
  1987
   969
  7351
  4170
  8511
   836
  2128
   952
  3342
  6648
  4662
  5320
   196
  8526
  7295
  1644
  3087
  4833
  6484
  2145
  5793
  5498
  6384
  7190
  6757
  2379
  8095
  1063
  6822
  6581
  1627
  1813
  3115
  5529
  4896
  8578
  9586
  2577
  3178
  3673
  8524
  9983
  1014
   374
  9700
  1363
  4501
  4846
  2091
  7361
  2537
  5396
  4339
  9878
  7004
  6615
  1460
  8166
  3662
  2375
  6728
  7907
   925
   847
     0
  2148
  5808
  7251
  3980
   155
  8328
  6613
   669
  6773
  7068
   635
  3770
  8047
  1748
  2205
  3591
  5263
  4779
   985
  8023
  3436
  3349
  8016
  6841
  2663
  5245
  8889
  5009
  4980
  9448
  1190
  7384
  4116
  7374
   451
  3751
  6095
  3262
  5929
  7482
  5305
  5238
  8722
  9609
  4884
  2912
  5248
  5832
  8336
  1015
  2546
  4499
  2148
  1316
  5279
  4400
  3593
  9091
  7844
  3218
  2973
  5227
  1181
  3108
  7636
  7904
  7242
  2379
   502
  7793
  8851
  2078
  4305
  1134
  9083
  6623
  9635
  3523
  4555
  8017
  3592
   815
  5023
  9879
  5483
  3026
  5934
  8270
  8474
  6304
  2294
  9087
  8959
  9975
  1983
  2329
  6495
  5076
  1044
  4622
  8327
  6727
  7022
   470
   448
  5793
  1408
  3378
  8333
   650
  7596
  9385
  6217
  4202
   191
  7878
  7095
  8725
  8149
  4250
  1682
  5504
   835
  1416
  5944
  4987
  4660
  3608
  1808
  7747
  2124
  6046
  8595
  8339
  6554
  9917
  3364
  5817
  1315
   464
  7770
  3967
  1517
  9883
  4967
  1059
  9629
   729
  2028
  7201
  5333
  8079
  5999
  2693
  4511
  4764
  9614
  8402
   139
  2592
  3287
  3756
  8916
  9238
  5068
  9654
  2397
  5571
  7564
    44
  2863
  6789
  5545
  4358
  6946
  5152
   209
  9845
  7477
  2467
  5157
  3151
  4917
  5847
  4809
  5732
  1130
  7052
  9716
  9546
  7434
  5426
  7910
  5093
   970
  9624
  1269
   740
  5744
  9879
  3407
   841
   212
  1873
  8245
  5105
  8945
  8644
  9402
  7055
  5342
  2093
  1557
  7219
  8676
  8185
  1051
  3704
  9921
  4032
  8466
  4032
   496
  6272
  3959
   755
  7355
  5216
  3263
  6363
  3187
  3131
  7411
   317
  9799
   245
   474
  3009
  6304
  9504
  5741
  9162
  7927
  6618
  6156
   532
  7102
  7290
  4920
  2743
  4443
  3208
  9141
  6777
  9779
   772
  5944
  3668
  4590
   381
  5794
  2840
  8409
  6452
  1513
  9551
  3534
  9986
  3010
  1255
  6216
  3883
  7210
  1422
  1012
  9751
  3715
  5056
  2294
   168
    79
   143
  8154
  2531
  7663
   596
  2684
  2585
  2777
  3705
  7758
  2391
  9819
  4559
  8881
  8283
  2874
  3992
  8477
  1321
  1670
  7958
  9121
  7574
  8429
  9725
  3416
   781
  9108
  6591
  1005
  1330
  8345
  1495
  9780
  9771
   546
  9893
  9277
  4012
  5993
  1898
  9147
  7785
  4110
  3030
  2773
  3477
   220
  4875
  4781
  9055
  3158
  9411
  9237
  8930
  7264
  2165
  3350
    45
  3543
  6340
   747
  6171
  6397
  6557
  3850
   524
  1465
  8063
  1218
  3745
   505
  5246
  7063
  1302
  6340
  3865
  2966
  3093
  4109
  1374
  1869
  4709
  2430
  2298
  4546
  4707
  5028
  5908
  1029
  2438
  7520
  9159
  7916
  8118
  9274
  9431
  6499
  9320
   833
  8530
  5969
  9587
  9213
  6186
  2705
   609
  1555
  7140
  3749
  5042
  3105
  4770
  5487
  5612
  8152
  3468
  3154
  8582
  2362
   283
  7672
  9350
  6153
  6777
  8326
  5167
  2627
  5820
  5298
  6426
  2468
   396
  3752
  2996
  8916
  9393
  9937
  7790
  9897
  2908
  7891
  4510
  6613
  9089
  1139
  5955
  3622
  6448
  1999
  5994
  6892
  7761
  7744
  2448
  1610
  4878
  6125
  3287
  1834
  9428
  2476
  3580
  1229
  4778
  4079
  6212
  5210
  4443
  6522
  2903
  1536
  6197
  3490
   152
  4302
  1402
  2991
  1326
  2175
  7956
  9363
  4785
  9512
  2178
  2717
  6442
  5281
  7988
  9000
  6558
  3743
  4291
  1929
  1936
  3673
  5960
  7186
  7667
  5378
  6063
  1613
  4531
   232
  5850
  8900
  6204
  9132
  7271
  5670
  4300
  1534
  5854
  4522
  4918
  2390
  4623
  2422
  7747
   802
   867
  8524
  5025
   103
  7412
  2333
  3525
  1459
  7174
  9312
  5547
  3413
  1416
  8890
  3965
  8960
  1996
  5147
   869
  2295
  5487
  2785
  8432
  7463
  5369
  7578
  8126
  5020
   597
  6145
  5924
  6455
  8740
  2634
   781
  7381
  3969
  9653
  8241
  5657
  8776
  3498
  7118
  8462
  5547
  5205
  8074
  9361
   625
  5184
  5275
  8190
  7839
  3456
  8766
  8846
  9431
  2085
  4690
  8159
  2359
  5093
  1692
  6263
  2916
  8042
   382
  2882
  2040
  6443
  8091
  7802
  4364
  4648
  8379
  8481
  4745
  1674
  3623
  3384
  2649
  6071
  1562
  4574
  9102
  4005
  3245
  7108
   863
  4220
  7524
  6153
  8540
  4915
  6556
  1686
  7158
   248
  4536
  7660
  9655
  5708
  6813
  6865
  8056
  4476
  2424
  1142
  1218
  4043
  4366
  6371
  2706
  5469
  4581
  2199
  7878
  1664
  9468
  4987
  4501
  1073
  8099
  6685
    97
  4190
  1188
  2250
  2766
  6806
  7731
  1721
  7822
  9215
  3809
  3758
  8568
  9993
  9878
  8986
  1744
  1741
  1466
  7863
  8694
  8201
  6105
  8504
  6047
  9620
  8761
  6116
  1736
  9426
  1995
  2839
  1611
  3894
  3127
  6857
  6974
  7476
  7501
  8982
  8979
  4772
   299
  1279
  8268
  7839
  7575
  3912
  6014
  2557
  4183
  4160
  4720
  1317
  8535
  7201
  3157
  9083
  6332
    70
  5004
  1997
   241
  9063
  7607
   822
  4366
   866
   153
  6623
  9441
  4234
  4924
   298
  2136
  1108
  8157
  1785
  7877
   815
  7262
  5396
  6846
  6554
  5469
  2813
  4746
  3656
  9418
  8961
  9583
   951
  3900
  9573
  1331
  7767
  9358
  9254
  3488
  7736
  1279
  8391
  5677
  4853
   286
  6724
  5529
  4041
   334
  6334
   474
  8436
  1976
   856
  9624
  8763
  2225
  8438
  8552
  6947
  4932
  4737
  9875
  7533
  3449
  6729
  5697
  2938
  4804
  4168
  8169
  4973
  1597
  2866
  2140
  8241
  4850
  8887
  9456
  2778
  4093
  9071
  4053
  8678
  4385
  4424
  5846
  4066
  9112
  4611
  9476
  7806
  9648
   984
  2570
  3401
  6255
  9451
  3462
  9097
  8574
  5426
  5197
  2373
  9135
  9827
  6096
  4597
   189
  8255
  8846
  9662
  6834
  9825
  5759
  9416
  3012
  5849
  2930
  4479
  2651
  8514
  5216
  2213
  2444
  3037
  6834
  6890
  2591
   303
  4157
  1127
  4196
  4982
  8284
  1218
  7750
   722
  1120
  1619
  6351
  3795
  4794
  1033
  9394
  4652
  3962
  1931
  4256
   221
  1193
  2503
  2144
  8616
  1832
  5424
  2718
  7337
  3969
  7795
  2060
  1634
  9015
  5539
  3375
  9892
  3380
  4604
  3951
  2483
  6668
  5692
  7721
  8124
   359
   889
  6211
  6205
  7150
  8776
  4779
  8257
   399
  3209
  7680
  8281
  1798
  7830
  4101
  6874
  4227
  7890
   644
  7257
  5990
  6769
  6256
  9327
  1880
   748
  6994
  4758
  8916
  6299
  5628
  3554
  3055
  6200
  4934
  1013
  4738
  3785
  7978
   314
  6000
  9900
  6703
  1302
  1227
  9460
  1984
  2275
  2616
  9133
   342
  1596
  4465
  2775
  1689
  7762
  9804
   876
  3897
  9483
  9365
  9356
  9064
  7385
  4850
  3393
  6629
  8807
  8070
  6040
  3569
  1458
  3909
  9077
  5054
  6388
  6637
  3489
  1726
  2551
   392
  7612
  5859
    38
  9755
  6892
  9224
  7239
  6060
  2942
  3406
  5266
  2772
  4897
   481
  1454
   860
  8138
   937
  5270
  6124
  7212
  9665
  8408
  7182
  7309
  2006
  3853
  4741
  4353
  5970
  6942
  9687
  7194
  7403
  6289
  9226
   331
  4368
  2532
  5063
  4648
  9860
  8101
   973
  1003
  7165
  9836
   730
  3731
  5845
  6436
  8950
   981
  6113
  6835
  5826
  1681
  7512
  8284
  3511
   613
  8006
  7120
  7249
  7153
    48
  3446
   844
  4900
  7697
  4498
  3312
  1440
  3281
  3566
  2956
  9869
  8763
  5264
  4987
  4294
  9521
  6054
  9487
   164
  2101
  9703
  3933
  5994
   313
  1737
  6239
   978
  6159
  6047
  2467
  7930
  2392
  5576
  9022
  8229
  7782
    66
  7112
  6518
  1826
   315
  9171
  3612
   800
  2118
  7554
  3265
  5150
  9536
  4510
  8852
  9368
   214
   931
  4378
  9989
  2887
  6839
  5505
   132
  4641
  1006
   412
  3679
  7399
  6522
  3243
  3517
  6499
  9254
  1439
  9647
  8000
  4162
   477
  5418
  5676
   963
  8594
  3723
   591
  9683
   911
  3345
  7298
  4510
  2885
  3966
  6435
  7966
  4931
  9428
  4670
  3780
  4644
  5719
  6003
  5540
  5974
  7835
  2289
  7956
  5184
  2204
  6463
  9818
  2334
  4861
  3330
  2772
  4176
  1819
  5715
  8585
   249
  5258
  9689
  8311
  3687
  3339
   110
  5592
  9978
  2360
  1451
  4963
  8297
  1137
  6473
  1117
  8558
  8773
  8548
  4235
  5790
  2799
  3503
  9155
  3450
   519
  5408
  2386
  1662
  2897
  6663
  1066
  5481
  8243
  3435
   321
   493
  7985
  2223
   811
  4299
  9437
  3358
  8604
  3876
  7396
  8360
  1184
  9858
  2473
  9140
  4441
  2277
  9852
   249
  3492
  7627
  1120
  2314
  9044
  5557
    70
  3152
  3893
  5872
  5449
  8038
  8266
  7252
  7567
  2176
  8055
  7782
  6746
  2599
  5379
   273
  6933
  4099
  3654
  7765
  1457
   637
  6780
  2193
  4177
  1773
  1179
  8158
  4391
  6672
  8757
  2569
  6750
  1747
  7853
  9564
  7904
  3525
  6362
  5066
  3603
  8731
  3392
  3717
  1403
   531
  2157
  8507
   587
  6684
  3022
  2709
  5800
  5482
  5024
   278
  2458
  6736
  3815
  6750
  7466
  6986
  5227
  8029
   322
  4091
  2535
  4573
  2511
  3894
  2785
  2089
   621
   792
  6360
  1207
  1232
   911
  2154
  2249
  5054
  3083
  7724
  3502
  5061
  2478
  1876
  3103
  9841
  8538
  7683
  1331
  6570
  2646
  2133
  2326
   633
  3599
  4277
  6413
  5181
  9784
  7416
  1581
  3108
  6745
  7730
  6842
   375
  1972
  3652
   234
  3861
  6737
  8357
  5586
   412
  6910
  6619
  4240
  9125
  2517
  9916
  1678
   965
  6724
  7137
  4699
  7038
  5173
  4474
  2269
  3350
  7496
  4370
  9598
  9357
  5804
  3503
  4110
  3629
  8443
   546
  8641
  6214
  1206
  5255
   458
  7032
  3330
  4481
  6455
  2611
   320
  1321
  7109
  7106
  7420
  3378
  5909
  3130
  8039
  4660
  1554
  3915
  9706
  1444
  1837
  7175
   435
  3674
   856
  8243
  5590
  1925
  3968
  9228
  7603
   547
  9549
  3133
  1168
  1417
  9104
  5988
   302
    33
  7087
  4094
  2353
  4069
  7666
  3940
  2407
   572
  9957
  7456
  3797
  5059
  4364
  9515
  1887
  9908
  8217
   370
  4672
  9395
  1561
  1030
   140
  4620
  9575
  4860
  5328
  9735
   861
  8004
  4439
  8542
  1320
  4715
  2373
  9932
  1720
  3497
  5950
  5166
  9648
  2655
  6432
  3478
  4017
  7325
   887
  1089
  7066
  6906
  3681
  3250
   480
  4154
  8512
  4001
  7858
    77
  9794
  9681
    11
  3180
   525
  4298
  5534
  4076
  1273
  9199
  7154
  2380
  9819
  7795
   524
  6907
  9483
  9567
  3027
  9731
  7039
  8240
  1342
  4988
   291
  1147
  4416
  5554
  6863
  9235
  1622
   915
   375
  5805
  1032
  3015
  1188
  3760
  7841
  6602
  3724
  5244
  1838
  5168
   381
  1526
  3007
  1975
  4740
   464
  2369
  3001
  6938
  4687
  3599
  1651
  7293
  7833
  4823
  1792
  5776
  1046
  9740
   898
  1000
   608
  1071
  8804
  4688
  5681
  6146
  7506
  6551
   233
  4546
  1064
  3519
  5263
  1445
  5832
  4786
  3030
  5920
  4754
  3563
  8079
  4560
  3994
  5789
    45
  5582
  8138
  9178
  9480
  6086
   206
  5447
  7267
  4712
  3818
  7951
  9025
  9980
   105
   518
  8061
  1932
  7754
  9386
  7811
  4770
  7522
  8352
  2784
  9771
   659
  6331
  7735
  9693
  8723
  9810
  8073
   249
  6966
  4357
   631
  4263
  4227
  2780
   487
  7225
  6285
   708
  8456
  2280
  1199
  3986
   229
  2688
  2223
  5265
  9316
  5921
  6497
  9095
  8837
  9263
  1260
   861
  5194
  3254
  1938
  7148
  3190
  8062
  8822
  4979
  1519
  6457
  1072
  2292
  9172
  7268
  1424
  6158
   714
  6352
  2488
  7106
  1321
  2156
  3361
  5547
  2807
  9508
  1008
  4526
  8758
  4803
  4504
   113
  6260
  8098
  1256
   640
  4042
  2396
  8429
  3176
  2821
  7541
  5621
  7756
  1000
  6736
  1065
  9596
  4564
  7048
  7046
  5852
  1013
  8877
  1513
  8489
  5280
  5473
   942
  6584
  7355
  4751
  7742
  1251
  4831
  7435
  2932
  4910
   727
   557
  5563
  6587
  8434
  5442
  6105
   421
  7125
  2912
  6873
  5573
  7709
  1031
  4809
  7680
  3585
  8807
   828
  1109
  4355
  9816
  5275
  1201
   557
  7891
  9703
  9442
  7588
  1201
  8135
  8929
  6589
  1077
  9134
   336
   633
  8436
  8398
  2721
  1678
  8024
  4328
  1252
  5269
  1650
  4936
   172
  2075
  3577
  7591
  4612
  6109
  9718
  1978
  9473
  1146
  6577
  7939
  6888
   995
  2087
  9505
  1241
  9190
  2417
  1542
  8252
  3297
  1989
  1457
  7516
  5189
  1279
   654
    33
  5029
  4524
  7075
  2107
  3707
  3825
  9234
  1635
  7621
  5112
  8717
  1299
  8652
  6553
  8291
  2247
  5944
  4847
  4458
  7450
  7961
  3675
  9291
  5871
  8875
  2781
  8161
  1556
  9237
  8735
  8788
  3291
  1020
  5523
  2077
  9303
  3082
  8926
  5305
  7872
  5757
  1194
  8265
  1721
  7353
   441
  7983
  3538
  1904
  9250
  9631
  8417
   284
    44
  6476
  4350
  6720
  8405
  3058
  7545
  4342
  7268
  1646
  5030
  7221
  8475
  4466
  8481
  2045
  5812
  7599
  2271
  7205
  7511
  1244
  3580
  2493
  2692
  1242
  6567
  8211
   440
  4391
  3784
  6644
  1048
  6974
  9390
  2755
  4200
  9043
  7579
   615
  8833
  3210
  2980
  3581
  4323
  2190
  7570
  3457
  6280
  5337
    73
  7027
  5032
  7346
  5818
  6520
  2106
  2709
  1546
  2244
  6331
  9056
  9182
  7934
  8371
  1654
  7735
   147
   158
  6351
  4342
  4862
  9212
  2569
  7049
  4979
  9825
  6956
  5214
  9429
  4802
  6348
  9602
  4756
  9956
  5747
  4586
  2827
  5496
  1240
  9860
  8195
  1378
  8041
  9609
  7038
  7764
   373
  3249
  8139
  4942
   382
  3255
  3609
  5391
  7596
  6156
  3450
  3711
  7902
  8738
  1672
  6599
  6478
  9445
  4200
  6518
    48
  4081
  8626
  4949
  9879
   802
  5764
  1106
  1651
  5574
  6530
  9887
  8476
  1214
   957
  3241
  9265
  5033
  1952
  3548
  3699
  5706
   845
  6368
  5868
  3100
  7307
  3500
  7956
  4462
  1404
  4241
  1007
  6479
  1432
  1043
  6532
  6366
  5501
   969
  5323
  4535
  1620
  7060
  1056
  8044
  2419
  4979
  8309
  5839
  2881
  7374
  4263
  8611
  6595
   410
  9997
  5450
  7836
  5756
  3986
   383
   676
   987
  3807
  1119
  2358
  2437
  9737
  4994
  8236
  8899
   901
  4894
  4776
  2856
  5404
  2578
  2553
  8653
  5351
  3850
  2116
  6657
  4310
  4584
  6435
  5257
   207
  1196
  6453
  7143
  4552
  3177
  6910
   962
  8210
   535
   848
  3889
  9578
  1934
  3860
  7664
  1189
  2777
  5405
  5884
  1171
    40
  9750
  7705
  7471
  3661
  3303
  6128
  4550
  9900
  8027
   810
  1780
   927
  4646
  8488
  5758
  3323
  1691
  9134
  3357
  8214
    87
  3831
  3926
  5344
  4490
  1037
  6638
  5544
   386
  5835
  1526
  9251
  1261
     1
  4059
  1857
  5915
  5283
  8170
   522
  1640
  8233
  9187
  1220
  5125
  3016
  5841
  1720
  8830
  8780
  9168
   671
  1371
  1778
  8481
   791
  7322
  2003
  7680
  2145
  3227
  2734
  3785
  4789
  2015
  5788
  2275
  7213
  7720
  5923
  4482
  1989
  1450
  8458
  1224
  6746
  6689
  7323
  8934
  3967
  2528
  8868
  3047
  9275
  8461
  8649
  8176
  1013
  3090
  9886
  1619
  3996
  9716
  8062
  2504
  8052
  8395
  6118
  9287
  7499
    22
  3041
  9244
  4156
  4978
  7720
  6179
  7623
  2616
  5369
   651
  2424
  6920
  9077
  7513
   349
  5843
  6248
  2137
  3057
  2936
  7437
   999
  7373
  6523
  2267
  2263
  3785
  3027
   202
  4555
  5760
  1413
  5232
     7
  7959
  7725
  4576
  9892
  3774
  3931
  3821
  7072
  6756
  3649
   653
  6948
  8550
  9764
  6352
  1012
  6776
  2927
  7769
  1258
  7007
  4366
  1976
  6214
  3431
  8061
  6847
  2289
    36
  2050
  6272
  1148
  2270
  2780
  2360
  3730
  3173
  6047
   933
  3155
  4242
  9039
  2218
  1476
  5125
  8224
  3703
  3280
  3543
  5479
  8750
  1202
  1784
  8519
  5764
  8422
  4570
  8911
   535
  2066
  8507
  3466
  8691
  2660
  8801
  3080
  8322
  6083
  5732
  5505
  2005
  3784
  5214
  5406
  3728
  2986
  5053
  2185
  6216
   377
   959
  6872
  8793
  3038
  8070
  8451
  3736
  5805
  1114
  2800
  2896
  7131
  9674
  4142
  5242
  2673
  2007
  5996
  6338
  6631
  3046
    59
  4093
  2147
  6464
  3119
   818
  9809
  6907
  3772
  5730
  9104
   103
  2214
  1310
  3728
  5230
  4770
  8586
  3939
  8888
   645
  7661
  3099
  4212
  8606
  4309
  4673
  8443
   885
  1615
  3686
  2941
  8459
  5306
  5852
  8202
  7991
  2385
  8197
  9472
  1683
  9654
  9634
  9454
  5988
  8655
  4957
  8307
  4667
   428
  6824
  7663
  6543
  7427
  6405
  6456
  4596
  8239
  7456
  3363
  7416
  7207
  1023
   966
  7316
  3150
  6476
  5676
  9495
  1950
  3605
    64
   767
  2957
  9285
  2012
  9833
  2713
  5723
  7463
  3777
  1838
  2258
  6796
  9123
  1029
  8700
  8158
  7660
  6693
  6339
  9688
  3075
  4662
  2550
  5150
  7654
  6505
  2436
  7270
  8972
  3812
  3623
  2948
  8572
  6510
  4856
  3799
  7727
  4142
  9367
  9118
  8823
  9115
  4237
  3682
  4841
  5757
  1515
   532
   616
  2884
  8633
  9806
  5596
  1783
  7603
  3731
  8905
  8124
  2176
  8010
  1403
  8602
  7292
  4120
  4268
  5508
  8984
  3731
  3770
  5746
  4467
  8126
  2676
  7585
  4417
   859
  2515
  3437
  7291
  2177
  5660
  3415
  3409
   499
  3605
  7041
  8639
  6527
  2506
  6011
   264
  1945
   438
  6797
  3661
  7308
    45
  7940
  6831
  4296
  6473
  4114
  7685
  3870
  9648
  9531
  3413
  8413
  6543
  8902
  8591
  4627
  4419
  7271
  8522
  8401
  5014
  4944
  5602
  7975
  1342
  7348
  6114
  5076
  7698
  8536
  7134
  2272
  4190
    82
   999
  8973
  5253
  3651
  5331
  9699
  1073
  9283
  7601
  7956
  9388
  8563
  9490
  3913
  2948
  1664
  7884
   843
  9210
  8265
  1024
  4160
  7676
  2061
  9091
  7280
  5730
  3105
  3534
   526
  1164
  6558
  8363
  2511
  5904
  8248
  8941
  5700
  4382
  6179
  5179
  4767
  1177
  4658
   345
  4722
  1865
  5403
  9229
   457
  4678
  3727
  3692
  1481
  7382
  6346
  5538
  6408
  8726
  8028
   415
  4791
  4526
  9283
  2284
   442
  6932
  6518
  5927
   741
  6679
  3183
  6632
  9076
  1254
  9925
  6576
  6577
  1136
  6053
  2684
  6410
  3433
  3467
   870
  6187
  1874
    57
  2521
  2933
  7987
  2424
  4152
     4
  6927
  4992
   139
  6996
  2470
  3834
    47
  3313
  9419
  9670
  4773
  4972
  5868
  2729
  2557
  2862
  9395
  7222
  3446
  8869
   291
  5353
  9151
  9192
  3458
  5822
  4264
  2288
  3881
  8836
  2172
  2703
  1552
  9022
  9064
  9763
  3635
  4026
  2671
  2954
  9701
  2556
  6136
  5074
  2232
  2919
  9846
  2969
  2875
  3617
  7588
  9947
  9368
  9172
     2
  9744
  2183
  6806
  5690
  7866
  2440
  6410
  4227
  1626
  7896
  4289
  8989
  7435
  1857
  1556
  9712
  4247
  9911
  1295
  9800
  7643
  1902
  8790
  5734
  5370
  5922
  7141
  7082
  7974
  4879
  8177
  2956
  1279
  9733
  7468
  4754
  8539
  1969
  5983
  3516
  4957
  1337
  9405
  2494
  3647
  8886
  6091
  5434
  7605
  5167
  1170
  1157
  4535
  7925
   992
  3247
  4202
  9572
  8416
  6995
  8880
  9471
  1818
  2337
  2974
  7847
  5272
  5828
  8494
  2086
  5621
  7863
  2257
  5845
   518
  7775
  3104
  9524
   867
  2735
  7641
  2413
  1551
  5463
   307
  9605
  3866
  6038
  1157
  7110
  1857
  5670
  2052
  7669
  9211
  1752
  1760
  3094
  6134
  7609
  8938
  4866
  9926
  6720
   679
  8481
  6372
  2044
  8668
  2825
  3550
  4752
  6411
  5272
  9574
  4345
  9609
  4824
  4119
   187
  6503
  3771
  9883
  3423
  9479
  6056
  9057
  8496
  4236
  2362
  3875
  9912
  7209
  1885
  1191